^C:\USERS\EZZUNE\DOWNLOADS\INSTANCED RENDERING DEMO\INSTANCED RENDERING DEMO\GPU01\GPU01.CPP
/c /ZI /JMC /nologo /W3 /WX- /diagnostics:classic /sdl /Od /D _DEBUG /D _CONSOLE /D _UNICODE /D UNICODE /Gm- /EHsc /RTC1 /MDd /GS /fp:precise /permissive- /Zc:wchar_t /Zc:forScope /Zc:inline /Fo"X64\DEBUG\\" /Fd"X64\DEBUG\VC141.PDB" /Gd /TP /FC C:\USERS\EZZUNE\DOWNLOADS\INSTANCED RENDERING DEMO\INSTANCED RENDERING DEMO\GPU01\GPU01.CPP
^C:\USERS\EZZUNE\DOWNLOADS\INSTANCED RENDERING DEMO\INSTANCED RENDERING DEMO\GPU01\PCH.CPP
/c /ZI /JMC /nologo /W3 /WX- /diagnostics:classic /sdl /Od /D _DEBUG /D _CONSOLE /D _UNICODE /D UNICODE /Gm- /EHsc /RTC1 /MDd /GS /fp:precise /permissive- /Zc:wchar_t /Zc:forScope /Zc:inline /Fo"X64\DEBUG\\" /Fd"X64\DEBUG\VC141.PDB" /Gd /TP /FC C:\USERS\EZZUNE\DOWNLOADS\INSTANCED RENDERING DEMO\INSTANCED RENDERING DEMO\GPU01\PCH.CPP
^C:\USERS\EZZUNE\DOWNLOADS\INSTANCED RENDERING DEMO\INSTANCED RENDERING DEMO\GPU01\SRC\AIBASEMESH.CPP
/c /ZI /JMC /nologo /W3 /WX- /diagnostics:classic /sdl /Od /D _DEBUG /D _CONSOLE /D _UNICODE /D UNICODE /Gm- /EHsc /RTC1 /MDd /GS /fp:precise /permissive- /Zc:wchar_t /Zc:forScope /Zc:inline /Fo"X64\DEBUG\\" /Fd"X64\DEBUG\VC141.PDB" /Gd /TP /FC C:\USERS\EZZUNE\DOWNLOADS\INSTANCED RENDERING DEMO\INSTANCED RENDERING DEMO\GPU01\SRC\AIBASEMESH.CPP
^C:\USERS\EZZUNE\DOWNLOADS\INSTANCED RENDERING DEMO\INSTANCED RENDERING DEMO\GPU01\SRC\AISCENE.CPP
/c /ZI /JMC /nologo /W3 /WX- /diagnostics:classic /sdl /Od /D _DEBUG /D _CONSOLE /D _UNICODE /D UNICODE /Gm- /EHsc /RTC1 /MDd /GS /fp:precise /permissive- /Zc:wchar_t /Zc:forScope /Zc:inline /Fo"X64\DEBUG\\" /Fd"X64\DEBUG\VC141.PDB" /Gd /TP /FC C:\USERS\EZZUNE\DOWNLOADS\INSTANCED RENDERING DEMO\INSTANCED RENDERING DEMO\GPU01\SRC\AISCENE.CPP
^C:\USERS\EZZUNE\DOWNLOADS\INSTANCED RENDERING DEMO\INSTANCED RENDERING DEMO\GPU01\SRC\ARCBALLCAMERA.CPP
/c /ZI /JMC /nologo /W3 /WX- /diagnostics:classic /sdl /Od /D _DEBUG /D _CONSOLE /D _UNICODE /D UNICODE /Gm- /EHsc /RTC1 /MDd /GS /fp:precise /permissive- /Zc:wchar_t /Zc:forScope /Zc:inline /Fo"X64\DEBUG\\" /Fd"X64\DEBUG\VC141.PDB" /Gd /TP /FC C:\USERS\EZZUNE\DOWNLOADS\INSTANCED RENDERING DEMO\INSTANCED RENDERING DEMO\GPU01\SRC\ARCBALLCAMERA.CPP
^C:\USERS\EZZUNE\DOWNLOADS\INSTANCED RENDERING DEMO\INSTANCED RENDERING DEMO\GPU01\SRC\AIMESH.CPP
/c /ZI /JMC /nologo /W3 /WX- /diagnostics:classic /sdl /Od /D _DEBUG /D _CONSOLE /D _UNICODE /D UNICODE /Gm- /EHsc /RTC1 /MDd /GS /fp:precise /permissive- /Zc:wchar_t /Zc:forScope /Zc:inline /Fo"X64\DEBUG\\" /Fd"X64\DEBUG\VC141.PDB" /Gd /TP /FC C:\USERS\EZZUNE\DOWNLOADS\INSTANCED RENDERING DEMO\INSTANCED RENDERING DEMO\GPU01\SRC\AIMESH.CPP
^C:\USERS\EZZUNE\DOWNLOADS\INSTANCED RENDERING DEMO\INSTANCED RENDERING DEMO\GPU01\SRC\BASICTERRAIN.CPP
/c /ZI /JMC /nologo /W3 /WX- /diagnostics:classic /sdl /Od /D _DEBUG /D _CONSOLE /D _UNICODE /D UNICODE /Gm- /EHsc /RTC1 /MDd /GS /fp:precise /permissive- /Zc:wchar_t /Zc:forScope /Zc:inline /Fo"X64\DEBUG\\" /Fd"X64\DEBUG\VC141.PDB" /Gd /TP /FC C:\USERS\EZZUNE\DOWNLOADS\INSTANCED RENDERING DEMO\INSTANCED RENDERING DEMO\GPU01\SRC\BASICTERRAIN.CPP
^C:\USERS\EZZUNE\DOWNLOADS\INSTANCED RENDERING DEMO\INSTANCED RENDERING DEMO\GPU01\SRC\GRASSFIELD.CPP
/c /ZI /JMC /nologo /W3 /WX- /diagnostics:classic /sdl /Od /D _DEBUG /D _CONSOLE /D _UNICODE /D UNICODE /Gm- /EHsc /RTC1 /MDd /GS /fp:precise /permissive- /Zc:wchar_t /Zc:forScope /Zc:inline /Fo"X64\DEBUG\\" /Fd"X64\DEBUG\VC141.PDB" /Gd /TP /FC C:\USERS\EZZUNE\DOWNLOADS\INSTANCED RENDERING DEMO\INSTANCED RENDERING DEMO\GPU01\SRC\GRASSFIELD.CPP
^C:\USERS\EZZUNE\DOWNLOADS\INSTANCED RENDERING DEMO\INSTANCED RENDERING DEMO\GPU01\SRC\GUCLOCK.CPP
/c /ZI /JMC /nologo /W3 /WX- /diagnostics:classic /sdl /Od /D _DEBUG /D _CONSOLE /D _UNICODE /D UNICODE /Gm- /EHsc /RTC1 /MDd /GS /fp:precise /permissive- /Zc:wchar_t /Zc:forScope /Zc:inline /Fo"X64\DEBUG\\" /Fd"X64\DEBUG\VC141.PDB" /Gd /TP /FC C:\USERS\EZZUNE\DOWNLOADS\INSTANCED RENDERING DEMO\INSTANCED RENDERING DEMO\GPU01\SRC\GUCLOCK.CPP
^C:\USERS\EZZUNE\DOWNLOADS\INSTANCED RENDERING DEMO\INSTANCED RENDERING DEMO\GPU01\SRC\NOISE\PERLINNOISE.CPP
/c /ZI /JMC /nologo /W3 /WX- /diagnostics:classic /sdl /Od /D _DEBUG /D _CONSOLE /D _UNICODE /D UNICODE /Gm- /EHsc /RTC1 /MDd /GS /fp:precise /permissive- /Zc:wchar_t /Zc:forScope /Zc:inline /Fo"X64\DEBUG\\" /Fd"X64\DEBUG\VC141.PDB" /Gd /TP /FC C:\USERS\EZZUNE\DOWNLOADS\INSTANCED RENDERING DEMO\INSTANCED RENDERING DEMO\GPU01\SRC\NOISE\PERLINNOISE.CPP
^C:\USERS\EZZUNE\DOWNLOADS\INSTANCED RENDERING DEMO\INSTANCED RENDERING DEMO\GPU01\SRC\PARTICLESYSTEMCPU1.CPP
/c /ZI /JMC /nologo /W3 /WX- /diagnostics:classic /sdl /Od /D _DEBUG /D _CONSOLE /D _UNICODE /D UNICODE /Gm- /EHsc /RTC1 /MDd /GS /fp:precise /permissive- /Zc:wchar_t /Zc:forScope /Zc:inline /Fo"X64\DEBUG\\" /Fd"X64\DEBUG\VC141.PDB" /Gd /TP /FC C:\USERS\EZZUNE\DOWNLOADS\INSTANCED RENDERING DEMO\INSTANCED RENDERING DEMO\GPU01\SRC\PARTICLESYSTEMCPU1.CPP
^C:\USERS\EZZUNE\DOWNLOADS\INSTANCED RENDERING DEMO\INSTANCED RENDERING DEMO\GPU01\SRC\PARTICLESYSTEMCPU2.CPP
/c /ZI /JMC /nologo /W3 /WX- /diagnostics:classic /sdl /Od /D _DEBUG /D _CONSOLE /D _UNICODE /D UNICODE /Gm- /EHsc /RTC1 /MDd /GS /fp:precise /permissive- /Zc:wchar_t /Zc:forScope /Zc:inline /Fo"X64\DEBUG\\" /Fd"X64\DEBUG\VC141.PDB" /Gd /TP /FC C:\USERS\EZZUNE\DOWNLOADS\INSTANCED RENDERING DEMO\INSTANCED RENDERING DEMO\GPU01\SRC\PARTICLESYSTEMCPU2.CPP
^C:\USERS\EZZUNE\DOWNLOADS\INSTANCED RENDERING DEMO\INSTANCED RENDERING DEMO\GPU01\SRC\PARTICLESYSTEMGPU.CPP
/c /ZI /JMC /nologo /W3 /WX- /diagnostics:classic /sdl /Od /D _DEBUG /D _CONSOLE /D _UNICODE /D UNICODE /Gm- /EHsc /RTC1 /MDd /GS /fp:precise /permissive- /Zc:wchar_t /Zc:forScope /Zc:inline /Fo"X64\DEBUG\\" /Fd"X64\DEBUG\VC141.PDB" /Gd /TP /FC C:\USERS\EZZUNE\DOWNLOADS\INSTANCED RENDERING DEMO\INSTANCED RENDERING DEMO\GPU01\SRC\PARTICLESYSTEMGPU.CPP
^C:\USERS\EZZUNE\DOWNLOADS\INSTANCED RENDERING DEMO\INSTANCED RENDERING DEMO\GPU01\SRC\PATCHTERRAIN.CPP
/c /ZI /JMC /nologo /W3 /WX- /diagnostics:classic /sdl /Od /D _DEBUG /D _CONSOLE /D _UNICODE /D UNICODE /Gm- /EHsc /RTC1 /MDd /GS /fp:precise /permissive- /Zc:wchar_t /Zc:forScope /Zc:inline /Fo"X64\DEBUG\\" /Fd"X64\DEBUG\VC141.PDB" /Gd /TP /FC C:\USERS\EZZUNE\DOWNLOADS\INSTANCED RENDERING DEMO\INSTANCED RENDERING DEMO\GPU01\SRC\PATCHTERRAIN.CPP
^C:\USERS\EZZUNE\DOWNLOADS\INSTANCED RENDERING DEMO\INSTANCED RENDERING DEMO\GPU01\SRC\POINTEXTRUDEMODEL.CPP
/c /ZI /JMC /nologo /W3 /WX- /diagnostics:classic /sdl /Od /D _DEBUG /D _CONSOLE /D _UNICODE /D UNICODE /Gm- /EHsc /RTC1 /MDd /GS /fp:precise /permissive- /Zc:wchar_t /Zc:forScope /Zc:inline /Fo"X64\DEBUG\\" /Fd"X64\DEBUG\VC141.PDB" /Gd /TP /FC C:\USERS\EZZUNE\DOWNLOADS\INSTANCED RENDERING DEMO\INSTANCED RENDERING DEMO\GPU01\SRC\POINTEXTRUDEMODEL.CPP
^C:\USERS\EZZUNE\DOWNLOADS\INSTANCED RENDERING DEMO\INSTANCED RENDERING DEMO\GPU01\SRC\PRINCIPLEAXESMODEL.CPP
/c /ZI /JMC /nologo /W3 /WX- /diagnostics:classic /sdl /Od /D _DEBUG /D _CONSOLE /D _UNICODE /D UNICODE /Gm- /EHsc /RTC1 /MDd /GS /fp:precise /permissive- /Zc:wchar_t /Zc:forScope /Zc:inline /Fo"X64\DEBUG\\" /Fd"X64\DEBUG\VC141.PDB" /Gd /TP /FC C:\USERS\EZZUNE\DOWNLOADS\INSTANCED RENDERING DEMO\INSTANCED RENDERING DEMO\GPU01\SRC\PRINCIPLEAXESMODEL.CPP
^C:\USERS\EZZUNE\DOWNLOADS\INSTANCED RENDERING DEMO\INSTANCED RENDERING DEMO\GPU01\SRC\SHADER_SETUP.CPP
/c /ZI /JMC /nologo /W3 /WX- /diagnostics:classic /sdl /Od /D _DEBUG /D _CONSOLE /D _UNICODE /D UNICODE /Gm- /EHsc /RTC1 /MDd /GS /fp:precise /permissive- /Zc:wchar_t /Zc:forScope /Zc:inline /Fo"X64\DEBUG\\" /Fd"X64\DEBUG\VC141.PDB" /Gd /TP /FC C:\USERS\EZZUNE\DOWNLOADS\INSTANCED RENDERING DEMO\INSTANCED RENDERING DEMO\GPU01\SRC\SHADER_SETUP.CPP
^C:\USERS\EZZUNE\DOWNLOADS\INSTANCED RENDERING DEMO\INSTANCED RENDERING DEMO\GPU01\SRC\STRINGUTILITY.CPP
/c /ZI /JMC /nologo /W3 /WX- /diagnostics:classic /sdl /Od /D _DEBUG /D _CONSOLE /D _UNICODE /D UNICODE /Gm- /EHsc /RTC1 /MDd /GS /fp:precise /permissive- /Zc:wchar_t /Zc:forScope /Zc:inline /Fo"X64\DEBUG\\" /Fd"X64\DEBUG\VC141.PDB" /Gd /TP /FC C:\USERS\EZZUNE\DOWNLOADS\INSTANCED RENDERING DEMO\INSTANCED RENDERING DEMO\GPU01\SRC\STRINGUTILITY.CPP
^C:\USERS\EZZUNE\DOWNLOADS\INSTANCED RENDERING DEMO\INSTANCED RENDERING DEMO\GPU01\SRC\TESSELLATION\BASICTESSISOLINE.CPP
/c /ZI /JMC /nologo /W3 /WX- /diagnostics:classic /sdl /Od /D _DEBUG /D _CONSOLE /D _UNICODE /D UNICODE /Gm- /EHsc /RTC1 /MDd /GS /fp:precise /permissive- /Zc:wchar_t /Zc:forScope /Zc:inline /Fo"X64\DEBUG\\" /Fd"X64\DEBUG\VC141.PDB" /Gd /TP /FC C:\USERS\EZZUNE\DOWNLOADS\INSTANCED RENDERING DEMO\INSTANCED RENDERING DEMO\GPU01\SRC\TESSELLATION\BASICTESSISOLINE.CPP
^C:\USERS\EZZUNE\DOWNLOADS\INSTANCED RENDERING DEMO\INSTANCED RENDERING DEMO\GPU01\SRC\TESSELLATION\BASICTESSQUAD.CPP
/c /ZI /JMC /nologo /W3 /WX- /diagnostics:classic /sdl /Od /D _DEBUG /D _CONSOLE /D _UNICODE /D UNICODE /Gm- /EHsc /RTC1 /MDd /GS /fp:precise /permissive- /Zc:wchar_t /Zc:forScope /Zc:inline /Fo"X64\DEBUG\\" /Fd"X64\DEBUG\VC141.PDB" /Gd /TP /FC C:\USERS\EZZUNE\DOWNLOADS\INSTANCED RENDERING DEMO\INSTANCED RENDERING DEMO\GPU01\SRC\TESSELLATION\BASICTESSQUAD.CPP
^C:\USERS\EZZUNE\DOWNLOADS\INSTANCED RENDERING DEMO\INSTANCED RENDERING DEMO\GPU01\SRC\TESSELLATION\BASICTESSTRI.CPP
/c /ZI /JMC /nologo /W3 /WX- /diagnostics:classic /sdl /Od /D _DEBUG /D _CONSOLE /D _UNICODE /D UNICODE /Gm- /EHsc /RTC1 /MDd /GS /fp:precise /permissive- /Zc:wchar_t /Zc:forScope /Zc:inline /Fo"X64\DEBUG\\" /Fd"X64\DEBUG\VC141.PDB" /Gd /TP /FC C:\USERS\EZZUNE\DOWNLOADS\INSTANCED RENDERING DEMO\INSTANCED RENDERING DEMO\GPU01\SRC\TESSELLATION\BASICTESSTRI.CPP
^C:\USERS\EZZUNE\DOWNLOADS\INSTANCED RENDERING DEMO\INSTANCED RENDERING DEMO\GPU01\SRC\TESSELLATION\BEZIERCURVETESS.CPP
/c /ZI /JMC /nologo /W3 /WX- /diagnostics:classic /sdl /Od /D _DEBUG /D _CONSOLE /D _UNICODE /D UNICODE /Gm- /EHsc /RTC1 /MDd /GS /fp:precise /permissive- /Zc:wchar_t /Zc:forScope /Zc:inline /Fo"X64\DEBUG\\" /Fd"X64\DEBUG\VC141.PDB" /Gd /TP /FC C:\USERS\EZZUNE\DOWNLOADS\INSTANCED RENDERING DEMO\INSTANCED RENDERING DEMO\GPU01\SRC\TESSELLATION\BEZIERCURVETESS.CPP
^C:\USERS\EZZUNE\DOWNLOADS\INSTANCED RENDERING DEMO\INSTANCED RENDERING DEMO\GPU01\SRC\TESSELLATION\BEZIERSURFACE.CPP
/c /ZI /JMC /nologo /W3 /WX- /diagnostics:classic /sdl /Od /D _DEBUG /D _CONSOLE /D _UNICODE /D UNICODE /Gm- /EHsc /RTC1 /MDd /GS /fp:precise /permissive- /Zc:wchar_t /Zc:forScope /Zc:inline /Fo"X64\DEBUG\\" /Fd"X64\DEBUG\VC141.PDB" /Gd /TP /FC C:\USERS\EZZUNE\DOWNLOADS\INSTANCED RENDERING DEMO\INSTANCED RENDERING DEMO\GPU01\SRC\TESSELLATION\BEZIERSURFACE.CPP
^C:\USERS\EZZUNE\DOWNLOADS\INSTANCED RENDERING DEMO\INSTANCED RENDERING DEMO\GPU01\SRC\TESSELLATION\BSPLINESURFACE.CPP
/c /ZI /JMC /nologo /W3 /WX- /diagnostics:classic /sdl /Od /D _DEBUG /D _CONSOLE /D _UNICODE /D UNICODE /Gm- /EHsc /RTC1 /MDd /GS /fp:precise /permissive- /Zc:wchar_t /Zc:forScope /Zc:inline /Fo"X64\DEBUG\\" /Fd"X64\DEBUG\VC141.PDB" /Gd /TP /FC C:\USERS\EZZUNE\DOWNLOADS\INSTANCED RENDERING DEMO\INSTANCED RENDERING DEMO\GPU01\SRC\TESSELLATION\BSPLINESURFACE.CPP
^C:\USERS\EZZUNE\DOWNLOADS\INSTANCED RENDERING DEMO\INSTANCED RENDERING DEMO\GPU01\SRC\TESSELLATION\CATMULROMSPLINE.CPP
/c /ZI /JMC /nologo /W3 /WX- /diagnostics:classic /sdl /Od /D _DEBUG /D _CONSOLE /D _UNICODE /D UNICODE /Gm- /EHsc /RTC1 /MDd /GS /fp:precise /permissive- /Zc:wchar_t /Zc:forScope /Zc:inline /Fo"X64\DEBUG\\" /Fd"X64\DEBUG\VC141.PDB" /Gd /TP /FC C:\USERS\EZZUNE\DOWNLOADS\INSTANCED RENDERING DEMO\INSTANCED RENDERING DEMO\GPU01\SRC\TESSELLATION\CATMULROMSPLINE.CPP
^C:\USERS\EZZUNE\DOWNLOADS\INSTANCED RENDERING DEMO\INSTANCED RENDERING DEMO\GPU01\SRC\TEXTUREDQUADMODEL.CPP
/c /ZI /JMC /nologo /W3 /WX- /diagnostics:classic /sdl /Od /D _DEBUG /D _CONSOLE /D _UNICODE /D UNICODE /Gm- /EHsc /RTC1 /MDd /GS /fp:precise /permissive- /Zc:wchar_t /Zc:forScope /Zc:inline /Fo"X64\DEBUG\\" /Fd"X64\DEBUG\VC141.PDB" /Gd /TP /FC C:\USERS\EZZUNE\DOWNLOADS\INSTANCED RENDERING DEMO\INSTANCED RENDERING DEMO\GPU01\SRC\TEXTUREDQUADMODEL.CPP
^C:\USERS\EZZUNE\DOWNLOADS\INSTANCED RENDERING DEMO\INSTANCED RENDERING DEMO\GPU01\SRC\TEXTURE_LOADER.CPP
/c /ZI /JMC /nologo /W3 /WX- /diagnostics:classic /sdl /Od /D _DEBUG /D _CONSOLE /D _UNICODE /D UNICODE /Gm- /EHsc /RTC1 /MDd /GS /fp:precise /permissive- /Zc:wchar_t /Zc:forScope /Zc:inline /Fo"X64\DEBUG\\" /Fd"X64\DEBUG\VC141.PDB" /Gd /TP /FC C:\USERS\EZZUNE\DOWNLOADS\INSTANCED RENDERING DEMO\INSTANCED RENDERING DEMO\GPU01\SRC\TEXTURE_LOADER.CPP
^C:\USERS\EZZUNE\DOWNLOADS\INSTANCED RENDERING DEMO\INSTANCED RENDERING DEMO\GPU01\SRC\TREEFIELD.CPP
/c /ZI /JMC /nologo /W3 /WX- /diagnostics:classic /sdl /Od /D _DEBUG /D _CONSOLE /D _UNICODE /D UNICODE /Gm- /EHsc /RTC1 /MDd /GS /fp:precise /permissive- /Zc:wchar_t /Zc:forScope /Zc:inline /Fo"X64\DEBUG\\" /Fd"X64\DEBUG\VC141.PDB" /Gd /TP /FC C:\USERS\EZZUNE\DOWNLOADS\INSTANCED RENDERING DEMO\INSTANCED RENDERING DEMO\GPU01\SRC\TREEFIELD.CPP
^C:\USERS\EZZUNE\DOWNLOADS\INSTANCED RENDERING DEMO\INSTANCED RENDERING DEMO\GPU01\SRC\VIEWFRUSTUM.CPP
/c /ZI /JMC /nologo /W3 /WX- /diagnostics:classic /sdl /Od /D _DEBUG /D _CONSOLE /D _UNICODE /D UNICODE /Gm- /EHsc /RTC1 /MDd /GS /fp:precise /permissive- /Zc:wchar_t /Zc:forScope /Zc:inline /Fo"X64\DEBUG\\" /Fd"X64\DEBUG\VC141.PDB" /Gd /TP /FC C:\USERS\EZZUNE\DOWNLOADS\INSTANCED RENDERING DEMO\INSTANCED RENDERING DEMO\GPU01\SRC\VIEWFRUSTUM.CPP
^C:\USERS\EZZUNE\DOWNLOADS\INSTANCED RENDERING DEMO\INSTANCED RENDERING DEMO\GPU01\SRC\PROCEDURALTEXTURE.CPP
/c /ZI /JMC /nologo /W3 /WX- /diagnostics:classic /sdl /Od /D _DEBUG /D _CONSOLE /D _UNICODE /D UNICODE /Gm- /EHsc /RTC1 /MDd /GS /fp:precise /permissive- /Zc:wchar_t /Zc:forScope /Zc:inline /Fo"X64\DEBUG\\" /Fd"X64\DEBUG\VC141.PDB" /Gd /TP /FC C:\USERS\EZZUNE\DOWNLOADS\INSTANCED RENDERING DEMO\INSTANCED RENDERING DEMO\GPU01\SRC\PROCEDURALTEXTURE.CPP
^C:\USERS\EZZUNE\DESKTOP\INSTANCED RENDERING DEMO\INSTANCED RENDERING DEMO\GPU01\PCH.CPP
/c /ZI /JMC /nologo /W3 /WX- /diagnostics:classic /sdl /Od /D _DEBUG /D _CONSOLE /D _UNICODE /D UNICODE /Gm- /EHsc /RTC1 /MDd /GS /fp:precise /permissive- /Zc:wchar_t /Zc:forScope /Zc:inline /Fo"X64\DEBUG\\" /Fd"X64\DEBUG\VC141.PDB" /Gd /TP /FC C:\USERS\EZZUNE\DESKTOP\INSTANCED RENDERING DEMO\INSTANCED RENDERING DEMO\GPU01\PCH.CPP
^C:\USERS\EZZUNE\DESKTOP\INSTANCED RENDERING DEMO\INSTANCED RENDERING DEMO\GPU01\SRC\AIBASEMESH.CPP
/c /ZI /JMC /nologo /W3 /WX- /diagnostics:classic /sdl /Od /D _DEBUG /D _CONSOLE /D _UNICODE /D UNICODE /Gm- /EHsc /RTC1 /MDd /GS /fp:precise /permissive- /Zc:wchar_t /Zc:forScope /Zc:inline /Fo"X64\DEBUG\\" /Fd"X64\DEBUG\VC141.PDB" /Gd /TP /FC C:\USERS\EZZUNE\DESKTOP\INSTANCED RENDERING DEMO\INSTANCED RENDERING DEMO\GPU01\SRC\AIBASEMESH.CPP
^C:\USERS\EZZUNE\DESKTOP\INSTANCED RENDERING DEMO\INSTANCED RENDERING DEMO\GPU01\SRC\AISCENE.CPP
/c /ZI /JMC /nologo /W3 /WX- /diagnostics:classic /sdl /Od /D _DEBUG /D _CONSOLE /D _UNICODE /D UNICODE /Gm- /EHsc /RTC1 /MDd /GS /fp:precise /permissive- /Zc:wchar_t /Zc:forScope /Zc:inline /Fo"X64\DEBUG\\" /Fd"X64\DEBUG\VC141.PDB" /Gd /TP /FC C:\USERS\EZZUNE\DESKTOP\INSTANCED RENDERING DEMO\INSTANCED RENDERING DEMO\GPU01\SRC\AISCENE.CPP
^C:\USERS\EZZUNE\DESKTOP\INSTANCED RENDERING DEMO\INSTANCED RENDERING DEMO\GPU01\SRC\ARCBALLCAMERA.CPP
/c /ZI /JMC /nologo /W3 /WX- /diagnostics:classic /sdl /Od /D _DEBUG /D _CONSOLE /D _UNICODE /D UNICODE /Gm- /EHsc /RTC1 /MDd /GS /fp:precise /permissive- /Zc:wchar_t /Zc:forScope /Zc:inline /Fo"X64\DEBUG\\" /Fd"X64\DEBUG\VC141.PDB" /Gd /TP /FC C:\USERS\EZZUNE\DESKTOP\INSTANCED RENDERING DEMO\INSTANCED RENDERING DEMO\GPU01\SRC\ARCBALLCAMERA.CPP
^C:\USERS\EZZUNE\DESKTOP\INSTANCED RENDERING DEMO\INSTANCED RENDERING DEMO\GPU01\SRC\AIMESH.CPP
/c /ZI /JMC /nologo /W3 /WX- /diagnostics:classic /sdl /Od /D _DEBUG /D _CONSOLE /D _UNICODE /D UNICODE /Gm- /EHsc /RTC1 /MDd /GS /fp:precise /permissive- /Zc:wchar_t /Zc:forScope /Zc:inline /Fo"X64\DEBUG\\" /Fd"X64\DEBUG\VC141.PDB" /Gd /TP /FC C:\USERS\EZZUNE\DESKTOP\INSTANCED RENDERING DEMO\INSTANCED RENDERING DEMO\GPU01\SRC\AIMESH.CPP
^C:\USERS\EZZUNE\DESKTOP\INSTANCED RENDERING DEMO\INSTANCED RENDERING DEMO\GPU01\SRC\BASICTERRAIN.CPP
/c /ZI /JMC /nologo /W3 /WX- /diagnostics:classic /sdl /Od /D _DEBUG /D _CONSOLE /D _UNICODE /D UNICODE /Gm- /EHsc /RTC1 /MDd /GS /fp:precise /permissive- /Zc:wchar_t /Zc:forScope /Zc:inline /Fo"X64\DEBUG\\" /Fd"X64\DEBUG\VC141.PDB" /Gd /TP /FC C:\USERS\EZZUNE\DESKTOP\INSTANCED RENDERING DEMO\INSTANCED RENDERING DEMO\GPU01\SRC\BASICTERRAIN.CPP
^C:\USERS\EZZUNE\DESKTOP\INSTANCED RENDERING DEMO\INSTANCED RENDERING DEMO\GPU01\SRC\GRASSFIELD.CPP
/c /ZI /JMC /nologo /W3 /WX- /diagnostics:classic /sdl /Od /D _DEBUG /D _CONSOLE /D _UNICODE /D UNICODE /Gm- /EHsc /RTC1 /MDd /GS /fp:precise /permissive- /Zc:wchar_t /Zc:forScope /Zc:inline /Fo"X64\DEBUG\\" /Fd"X64\DEBUG\VC141.PDB" /Gd /TP /FC C:\USERS\EZZUNE\DESKTOP\INSTANCED RENDERING DEMO\INSTANCED RENDERING DEMO\GPU01\SRC\GRASSFIELD.CPP
^C:\USERS\EZZUNE\DESKTOP\INSTANCED RENDERING DEMO\INSTANCED RENDERING DEMO\GPU01\SRC\GUCLOCK.CPP
/c /ZI /JMC /nologo /W3 /WX- /diagnostics:classic /sdl /Od /D _DEBUG /D _CONSOLE /D _UNICODE /D UNICODE /Gm- /EHsc /RTC1 /MDd /GS /fp:precise /permissive- /Zc:wchar_t /Zc:forScope /Zc:inline /Fo"X64\DEBUG\\" /Fd"X64\DEBUG\VC141.PDB" /Gd /TP /FC C:\USERS\EZZUNE\DESKTOP\INSTANCED RENDERING DEMO\INSTANCED RENDERING DEMO\GPU01\SRC\GUCLOCK.CPP
^C:\USERS\EZZUNE\DESKTOP\INSTANCED RENDERING DEMO\INSTANCED RENDERING DEMO\GPU01\SRC\NOISE\PERLINNOISE.CPP
/c /ZI /JMC /nologo /W3 /WX- /diagnostics:classic /sdl /Od /D _DEBUG /D _CONSOLE /D _UNICODE /D UNICODE /Gm- /EHsc /RTC1 /MDd /GS /fp:precise /permissive- /Zc:wchar_t /Zc:forScope /Zc:inline /Fo"X64\DEBUG\\" /Fd"X64\DEBUG\VC141.PDB" /Gd /TP /FC C:\USERS\EZZUNE\DESKTOP\INSTANCED RENDERING DEMO\INSTANCED RENDERING DEMO\GPU01\SRC\NOISE\PERLINNOISE.CPP
^C:\USERS\EZZUNE\DESKTOP\INSTANCED RENDERING DEMO\INSTANCED RENDERING DEMO\GPU01\SRC\PARTICLESYSTEMCPU1.CPP
/c /ZI /JMC /nologo /W3 /WX- /diagnostics:classic /sdl /Od /D _DEBUG /D _CONSOLE /D _UNICODE /D UNICODE /Gm- /EHsc /RTC1 /MDd /GS /fp:precise /permissive- /Zc:wchar_t /Zc:forScope /Zc:inline /Fo"X64\DEBUG\\" /Fd"X64\DEBUG\VC141.PDB" /Gd /TP /FC C:\USERS\EZZUNE\DESKTOP\INSTANCED RENDERING DEMO\INSTANCED RENDERING DEMO\GPU01\SRC\PARTICLESYSTEMCPU1.CPP
^C:\USERS\EZZUNE\DESKTOP\INSTANCED RENDERING DEMO\INSTANCED RENDERING DEMO\GPU01\SRC\PARTICLESYSTEMCPU2.CPP
/c /ZI /JMC /nologo /W3 /WX- /diagnostics:classic /sdl /Od /D _DEBUG /D _CONSOLE /D _UNICODE /D UNICODE /Gm- /EHsc /RTC1 /MDd /GS /fp:precise /permissive- /Zc:wchar_t /Zc:forScope /Zc:inline /Fo"X64\DEBUG\\" /Fd"X64\DEBUG\VC141.PDB" /Gd /TP /FC C:\USERS\EZZUNE\DESKTOP\INSTANCED RENDERING DEMO\INSTANCED RENDERING DEMO\GPU01\SRC\PARTICLESYSTEMCPU2.CPP
^C:\USERS\EZZUNE\DESKTOP\INSTANCED RENDERING DEMO\INSTANCED RENDERING DEMO\GPU01\SRC\PARTICLESYSTEMGPU.CPP
/c /ZI /JMC /nologo /W3 /WX- /diagnostics:classic /sdl /Od /D _DEBUG /D _CONSOLE /D _UNICODE /D UNICODE /Gm- /EHsc /RTC1 /MDd /GS /fp:precise /permissive- /Zc:wchar_t /Zc:forScope /Zc:inline /Fo"X64\DEBUG\\" /Fd"X64\DEBUG\VC141.PDB" /Gd /TP /FC C:\USERS\EZZUNE\DESKTOP\INSTANCED RENDERING DEMO\INSTANCED RENDERING DEMO\GPU01\SRC\PARTICLESYSTEMGPU.CPP
^C:\USERS\EZZUNE\DESKTOP\INSTANCED RENDERING DEMO\INSTANCED RENDERING DEMO\GPU01\SRC\POINTEXTRUDEMODEL.CPP
/c /ZI /JMC /nologo /W3 /WX- /diagnostics:classic /sdl /Od /D _DEBUG /D _CONSOLE /D _UNICODE /D UNICODE /Gm- /EHsc /RTC1 /MDd /GS /fp:precise /permissive- /Zc:wchar_t /Zc:forScope /Zc:inline /Fo"X64\DEBUG\\" /Fd"X64\DEBUG\VC141.PDB" /Gd /TP /FC C:\USERS\EZZUNE\DESKTOP\INSTANCED RENDERING DEMO\INSTANCED RENDERING DEMO\GPU01\SRC\POINTEXTRUDEMODEL.CPP
^C:\USERS\EZZUNE\DESKTOP\INSTANCED RENDERING DEMO\INSTANCED RENDERING DEMO\GPU01\SRC\PRINCIPLEAXESMODEL.CPP
/c /ZI /JMC /nologo /W3 /WX- /diagnostics:classic /sdl /Od /D _DEBUG /D _CONSOLE /D _UNICODE /D UNICODE /Gm- /EHsc /RTC1 /MDd /GS /fp:precise /permissive- /Zc:wchar_t /Zc:forScope /Zc:inline /Fo"X64\DEBUG\\" /Fd"X64\DEBUG\VC141.PDB" /Gd /TP /FC C:\USERS\EZZUNE\DESKTOP\INSTANCED RENDERING DEMO\INSTANCED RENDERING DEMO\GPU01\SRC\PRINCIPLEAXESMODEL.CPP
^C:\USERS\EZZUNE\DESKTOP\INSTANCED RENDERING DEMO\INSTANCED RENDERING DEMO\GPU01\SRC\PROCEDURALTEXTURE.CPP
/c /ZI /JMC /nologo /W3 /WX- /diagnostics:classic /sdl /Od /D _DEBUG /D _CONSOLE /D _UNICODE /D UNICODE /Gm- /EHsc /RTC1 /MDd /GS /fp:precise /permissive- /Zc:wchar_t /Zc:forScope /Zc:inline /Fo"X64\DEBUG\\" /Fd"X64\DEBUG\VC141.PDB" /Gd /TP /FC C:\USERS\EZZUNE\DESKTOP\INSTANCED RENDERING DEMO\INSTANCED RENDERING DEMO\GPU01\SRC\PROCEDURALTEXTURE.CPP
^C:\USERS\EZZUNE\DESKTOP\INSTANCED RENDERING DEMO\INSTANCED RENDERING DEMO\GPU01\SRC\SHADER_SETUP.CPP
/c /ZI /JMC /nologo /W3 /WX- /diagnostics:classic /sdl /Od /D _DEBUG /D _CONSOLE /D _UNICODE /D UNICODE /Gm- /EHsc /RTC1 /MDd /GS /fp:precise /permissive- /Zc:wchar_t /Zc:forScope /Zc:inline /Fo"X64\DEBUG\\" /Fd"X64\DEBUG\VC141.PDB" /Gd /TP /FC C:\USERS\EZZUNE\DESKTOP\INSTANCED RENDERING DEMO\INSTANCED RENDERING DEMO\GPU01\SRC\SHADER_SETUP.CPP
^C:\USERS\EZZUNE\DESKTOP\INSTANCED RENDERING DEMO\INSTANCED RENDERING DEMO\GPU01\SRC\STRINGUTILITY.CPP
/c /ZI /JMC /nologo /W3 /WX- /diagnostics:classic /sdl /Od /D _DEBUG /D _CONSOLE /D _UNICODE /D UNICODE /Gm- /EHsc /RTC1 /MDd /GS /fp:precise /permissive- /Zc:wchar_t /Zc:forScope /Zc:inline /Fo"X64\DEBUG\\" /Fd"X64\DEBUG\VC141.PDB" /Gd /TP /FC C:\USERS\EZZUNE\DESKTOP\INSTANCED RENDERING DEMO\INSTANCED RENDERING DEMO\GPU01\SRC\STRINGUTILITY.CPP
^C:\USERS\EZZUNE\DESKTOP\INSTANCED RENDERING DEMO\INSTANCED RENDERING DEMO\GPU01\SRC\TESSELLATION\BASICTESSISOLINE.CPP
/c /ZI /JMC /nologo /W3 /WX- /diagnostics:classic /sdl /Od /D _DEBUG /D _CONSOLE /D _UNICODE /D UNICODE /Gm- /EHsc /RTC1 /MDd /GS /fp:precise /permissive- /Zc:wchar_t /Zc:forScope /Zc:inline /Fo"X64\DEBUG\\" /Fd"X64\DEBUG\VC141.PDB" /Gd /TP /FC C:\USERS\EZZUNE\DESKTOP\INSTANCED RENDERING DEMO\INSTANCED RENDERING DEMO\GPU01\SRC\TESSELLATION\BASICTESSISOLINE.CPP
^C:\USERS\EZZUNE\DESKTOP\INSTANCED RENDERING DEMO\INSTANCED RENDERING DEMO\GPU01\SRC\TESSELLATION\BASICTESSQUAD.CPP
/c /ZI /JMC /nologo /W3 /WX- /diagnostics:classic /sdl /Od /D _DEBUG /D _CONSOLE /D _UNICODE /D UNICODE /Gm- /EHsc /RTC1 /MDd /GS /fp:precise /permissive- /Zc:wchar_t /Zc:forScope /Zc:inline /Fo"X64\DEBUG\\" /Fd"X64\DEBUG\VC141.PDB" /Gd /TP /FC C:\USERS\EZZUNE\DESKTOP\INSTANCED RENDERING DEMO\INSTANCED RENDERING DEMO\GPU01\SRC\TESSELLATION\BASICTESSQUAD.CPP
^C:\USERS\EZZUNE\DESKTOP\INSTANCED RENDERING DEMO\INSTANCED RENDERING DEMO\GPU01\SRC\TESSELLATION\BASICTESSTRI.CPP
/c /ZI /JMC /nologo /W3 /WX- /diagnostics:classic /sdl /Od /D _DEBUG /D _CONSOLE /D _UNICODE /D UNICODE /Gm- /EHsc /RTC1 /MDd /GS /fp:precise /permissive- /Zc:wchar_t /Zc:forScope /Zc:inline /Fo"X64\DEBUG\\" /Fd"X64\DEBUG\VC141.PDB" /Gd /TP /FC C:\USERS\EZZUNE\DESKTOP\INSTANCED RENDERING DEMO\INSTANCED RENDERING DEMO\GPU01\SRC\TESSELLATION\BASICTESSTRI.CPP
^C:\USERS\EZZUNE\DESKTOP\INSTANCED RENDERING DEMO\INSTANCED RENDERING DEMO\GPU01\SRC\TESSELLATION\BEZIERCURVETESS.CPP
/c /ZI /JMC /nologo /W3 /WX- /diagnostics:classic /sdl /Od /D _DEBUG /D _CONSOLE /D _UNICODE /D UNICODE /Gm- /EHsc /RTC1 /MDd /GS /fp:precise /permissive- /Zc:wchar_t /Zc:forScope /Zc:inline /Fo"X64\DEBUG\\" /Fd"X64\DEBUG\VC141.PDB" /Gd /TP /FC C:\USERS\EZZUNE\DESKTOP\INSTANCED RENDERING DEMO\INSTANCED RENDERING DEMO\GPU01\SRC\TESSELLATION\BEZIERCURVETESS.CPP
^C:\USERS\EZZUNE\DESKTOP\INSTANCED RENDERING DEMO\INSTANCED RENDERING DEMO\GPU01\SRC\TESSELLATION\BEZIERSURFACE.CPP
/c /ZI /JMC /nologo /W3 /WX- /diagnostics:classic /sdl /Od /D _DEBUG /D _CONSOLE /D _UNICODE /D UNICODE /Gm- /EHsc /RTC1 /MDd /GS /fp:precise /permissive- /Zc:wchar_t /Zc:forScope /Zc:inline /Fo"X64\DEBUG\\" /Fd"X64\DEBUG\VC141.PDB" /Gd /TP /FC C:\USERS\EZZUNE\DESKTOP\INSTANCED RENDERING DEMO\INSTANCED RENDERING DEMO\GPU01\SRC\TESSELLATION\BEZIERSURFACE.CPP
^C:\USERS\EZZUNE\DESKTOP\INSTANCED RENDERING DEMO\INSTANCED RENDERING DEMO\GPU01\SRC\TESSELLATION\BSPLINESURFACE.CPP
/c /ZI /JMC /nologo /W3 /WX- /diagnostics:classic /sdl /Od /D _DEBUG /D _CONSOLE /D _UNICODE /D UNICODE /Gm- /EHsc /RTC1 /MDd /GS /fp:precise /permissive- /Zc:wchar_t /Zc:forScope /Zc:inline /Fo"X64\DEBUG\\" /Fd"X64\DEBUG\VC141.PDB" /Gd /TP /FC C:\USERS\EZZUNE\DESKTOP\INSTANCED RENDERING DEMO\INSTANCED RENDERING DEMO\GPU01\SRC\TESSELLATION\BSPLINESURFACE.CPP
^C:\USERS\EZZUNE\DESKTOP\INSTANCED RENDERING DEMO\INSTANCED RENDERING DEMO\GPU01\SRC\TESSELLATION\CATMULROMSPLINE.CPP
/c /ZI /JMC /nologo /W3 /WX- /diagnostics:classic /sdl /Od /D _DEBUG /D _CONSOLE /D _UNICODE /D UNICODE /Gm- /EHsc /RTC1 /MDd /GS /fp:precise /permissive- /Zc:wchar_t /Zc:forScope /Zc:inline /Fo"X64\DEBUG\\" /Fd"X64\DEBUG\VC141.PDB" /Gd /TP /FC C:\USERS\EZZUNE\DESKTOP\INSTANCED RENDERING DEMO\INSTANCED RENDERING DEMO\GPU01\SRC\TESSELLATION\CATMULROMSPLINE.CPP
^C:\USERS\EZZUNE\DESKTOP\INSTANCED RENDERING DEMO\INSTANCED RENDERING DEMO\GPU01\SRC\TEXTUREDQUADMODEL.CPP
/c /ZI /JMC /nologo /W3 /WX- /diagnostics:classic /sdl /Od /D _DEBUG /D _CONSOLE /D _UNICODE /D UNICODE /Gm- /EHsc /RTC1 /MDd /GS /fp:precise /permissive- /Zc:wchar_t /Zc:forScope /Zc:inline /Fo"X64\DEBUG\\" /Fd"X64\DEBUG\VC141.PDB" /Gd /TP /FC C:\USERS\EZZUNE\DESKTOP\INSTANCED RENDERING DEMO\INSTANCED RENDERING DEMO\GPU01\SRC\TEXTUREDQUADMODEL.CPP
^C:\USERS\EZZUNE\DESKTOP\INSTANCED RENDERING DEMO\INSTANCED RENDERING DEMO\GPU01\SRC\TEXTURE_LOADER.CPP
/c /ZI /JMC /nologo /W3 /WX- /diagnostics:classic /sdl /Od /D _DEBUG /D _CONSOLE /D _UNICODE /D UNICODE /Gm- /EHsc /RTC1 /MDd /GS /fp:precise /permissive- /Zc:wchar_t /Zc:forScope /Zc:inline /Fo"X64\DEBUG\\" /Fd"X64\DEBUG\VC141.PDB" /Gd /TP /FC C:\USERS\EZZUNE\DESKTOP\INSTANCED RENDERING DEMO\INSTANCED RENDERING DEMO\GPU01\SRC\TEXTURE_LOADER.CPP
^C:\USERS\EZZUNE\DESKTOP\INSTANCED RENDERING DEMO\INSTANCED RENDERING DEMO\GPU01\SRC\VIEWFRUSTUM.CPP
/c /ZI /JMC /nologo /W3 /WX- /diagnostics:classic /sdl /Od /D _DEBUG /D _CONSOLE /D _UNICODE /D UNICODE /Gm- /EHsc /RTC1 /MDd /GS /fp:precise /permissive- /Zc:wchar_t /Zc:forScope /Zc:inline /Fo"X64\DEBUG\\" /Fd"X64\DEBUG\VC141.PDB" /Gd /TP /FC C:\USERS\EZZUNE\DESKTOP\INSTANCED RENDERING DEMO\INSTANCED RENDERING DEMO\GPU01\SRC\VIEWFRUSTUM.CPP
^C:\USERS\EZZUNE\DESKTOP\INSTANCED RENDERING DEMO\INSTANCED RENDERING DEMO\GPU01\SRC\TREEFIELD.CPP
/c /ZI /JMC /nologo /W3 /WX- /diagnostics:classic /sdl /Od /D _DEBUG /D _CONSOLE /D _UNICODE /D UNICODE /Gm- /EHsc /RTC1 /MDd /GS /fp:precise /permissive- /Zc:wchar_t /Zc:forScope /Zc:inline /Fo"X64\DEBUG\\" /Fd"X64\DEBUG\VC141.PDB" /Gd /TP /FC C:\USERS\EZZUNE\DESKTOP\INSTANCED RENDERING DEMO\INSTANCED RENDERING DEMO\GPU01\SRC\TREEFIELD.CPP
^C:\USERS\EZZUNE\DESKTOP\INSTANCED RENDERING DEMO\INSTANCED RENDERING DEMO\GPU01\SRC\PATCHTERRAIN.CPP
/c /ZI /JMC /nologo /W3 /WX- /diagnostics:classic /sdl /Od /D _DEBUG /D _CONSOLE /D _UNICODE /D UNICODE /Gm- /EHsc /RTC1 /MDd /GS /fp:precise /permissive- /Zc:wchar_t /Zc:forScope /Zc:inline /Fo"X64\DEBUG\\" /Fd"X64\DEBUG\VC141.PDB" /Gd /TP /FC C:\USERS\EZZUNE\DESKTOP\INSTANCED RENDERING DEMO\INSTANCED RENDERING DEMO\GPU01\SRC\PATCHTERRAIN.CPP
^C:\USERS\EZZUNE\DESKTOP\INSTANCED RENDERING DEMO\INSTANCED RENDERING DEMO\GPU01\GPU01.CPP
/c /ZI /JMC /nologo /W3 /WX- /diagnostics:classic /sdl /Od /D _DEBUG /D _CONSOLE /D _UNICODE /D UNICODE /Gm- /EHsc /RTC1 /MDd /GS /fp:precise /permissive- /Zc:wchar_t /Zc:forScope /Zc:inline /Fo"X64\DEBUG\\" /Fd"X64\DEBUG\VC141.PDB" /Gd /TP /FC C:\USERS\EZZUNE\DESKTOP\INSTANCED RENDERING DEMO\INSTANCED RENDERING DEMO\GPU01\GPU01.CPP
